f3:
岗亭：702 688

菱形：[1450,1150],[1500,1170],[1550,1150],[1500,1130]


f1:

(436, 1326) #Ache
(456, 1042) #Bche 
(289, 1227)#road
(861, 1377)#标线左下
(910, 1378)#标线右下
(908, 1356)#标线右上


f2:
(1598, 1184)A
(452, 1277)C
(722, 1200)B
[1500,1350],[1600,1350],[1600,1250],[1500,1250] 路左下至左上


f4:
(337, 1318)A
(1153, 1315)B
(1099, 312) C
(404, 309)D
(870, 1119) 人头顶
(872, 1289) 人脚底
(565, 1316) 左延长线
(940, 1316) 右延长线


任务三

由双目德距离 距离得水面宽度 宽度得速度 
速度：300km/h  83.33m/s
距离：(85, 885)岸边
           (92, 430) 桥
水面：147-255 108帧 300m
桥高 7.32m



任务四 

(647, 597)门右边
(627, 596)门左边
[300,100],[300,600],[1000,600],[1000,100]
宽度  (269, 599) 设 门宽200  路宽3.1m
路长度  (563, 599)  (571, 599)  [[300,200],[300,600],[900,600],[900,200]] 
pi*（70+2.48）+70+2.48+（67.5+12.4）*2=459.9826m


房子高度      人 (470, 459)  [[300,300],[300,500],[1000,500],[1000,300]] 尖顶 8.5m（左侧外部）
右侧 最矮的房子  (1105, 333) 7.0975m
后方最高房子 (965, 272)  [[300,300],[300,500],[700,500],[700,300]] 9.69m
545帧 第二高房子 (929, 339)  6.8425m


古宅 70*67.5+pi*35*35/2=6649.2255m^2


树 (879, 80) 22.1m  [[100,400],[100,600],[400,600],[400,400]]